 33102815	2016-07-21 11:28:37	1	0	0	0
 33102815	2016-07-21 11:28:49	1	2	0	0
 33102815	2016-07-21 11:29:06	1	2	0	0
 33102815	2016-07-21 12:04:01	1	4	0	0
 33102815	2016-07-21 12:15:08	1	0	0	0
 33102815	2016-07-21 12:15:16	1	2	0	0
 10262692	2016-07-21 12:40:10	1	4	0	0
 10262692	2016-07-21 12:40:33	1	2	0	0
 25763179	2016-07-21 12:42:41	1	4	0	0
 25763179	2016-07-21 12:42:57	1	2	0	0
  4581878	2016-07-21 12:45:05	1	4	0	0
  4581878	2016-07-21 12:45:46	1	2	0	0
 31957912	2016-07-21 12:47:55	1	4	0	0
 31957912	2016-07-21 12:48:14	1	2	0	0
 33102815	2016-07-21 12:51:34	1	4	0	0
 33102815	2016-07-21 12:55:38	1	4	0	0
 33102815	2016-07-21 12:55:50	1	2	0	0
 33102815	2016-07-21 12:56:31	1	4	0	0
 30303790	2016-07-21 12:57:54	1	4	0	0
 30303790	2016-07-21 12:57:56	1	4	0	0
 30303790	2016-07-21 12:58:14	1	4	0	0
 30303790	2016-07-21 12:58:32	1	2	0	0
 35867385	2016-07-23 09:10:59	1	4	0	0
 35867385	2016-07-23 09:11:20	1	2	0	0
 32863644	2016-07-23 11:13:34	1	4	0	0
 32863644	2016-07-23 11:13:52	1	2	0	0
 25763179	2016-07-25 06:49:16	1	4	0	0
 25763179	2016-07-25 06:49:30	1	4	0	0
 30303790	2016-07-25 06:57:06	1	4	0	0
 22915525	2016-07-25 07:02:23	1	4	0	0
 23478388	2016-07-25 07:02:29	1	4	0	0
 31957912	2016-07-25 07:51:28	1	4	0	0
 10262692	2016-07-25 09:03:58	1	4	0	0
 32604013	2016-07-25 09:53:06	1	4	0	0
  4581878	2016-07-25 10:50:39	1	4	0	0
 10262692	2016-07-25 13:07:35	1	4	0	0
 31825746	2016-07-25 13:34:54	1	4	0	0
 21811691	2016-07-25 13:47:04	1	4	0	0
 35867385	2016-07-25 13:53:08	1	4	0	0
 32863644	2016-07-25 13:57:07	1	4	0	0
 30303790	2016-07-25 14:59:05	1	4	0	0
 25763179	2016-07-25 14:59:31	1	4	0	0
 25763179	2016-07-25 14:59:56	1	4	0	0
  4581878	2016-07-25 15:00:18	1	4	0	0
 23478388	2016-07-25 15:06:30	1	4	0	0
 22915525	2016-07-25 15:08:46	1	4	0	0
 22915525	2016-07-25 15:09:00	1	2	0	0
 31957912	2016-07-25 16:00:12	1	2	0	0
 32604013	2016-07-25 16:59:16	1	4	0	0
 32604013	2016-07-25 16:59:22	1	4	0	0
 35867385	2016-07-25 22:00:04	1	4	0	0
 21811691	2016-07-25 22:00:51	1	2	0	0
 31825746	2016-07-25 22:01:00	1	2	0	0
 32863644	2016-07-25 22:01:08	1	2	0	0
 25763179	2016-07-26 06:47:44	1	4	0	0
 23478388	2016-07-26 07:01:49	1	4	0	0
 22915525	2016-07-26 07:01:57	1	4	0	0
 30303790	2016-07-26 07:04:50	1	4	0	0
 31957912	2016-07-26 07:50:17	1	4	0	0
 10262692	2016-07-26 08:45:23	1	4	0	0
 10262692	2016-07-26 08:45:24	1	4	0	0
 32604013	2016-07-26 09:37:36	1	4	0	0
  4581878	2016-07-26 10:50:48	1	4	0	0
  4581878	2016-07-26 10:50:57	1	4	0	0
  4581878	2016-07-26 10:50:59	1	4	0	0
 31825746	2016-07-26 13:34:24	1	4	0	0
 32863644	2016-07-26 13:49:29	1	4	0	0
 35867385	2016-07-26 13:50:16	1	4	0	0
 21811691	2016-07-26 13:50:41	1	4	0	0
 10262692	2016-07-26 13:54:16	1	2	0	0
 10262692	2016-07-26 13:54:16	1	2	0	0
 33266410	2016-07-26 14:49:41	1	4	0	0
 25763179	2016-07-26 15:02:15	1	2	0	0
 30303790	2016-07-26 15:02:36	1	2	0	0
  4581878	2016-07-26 15:03:56	1	2	0	0
  4581878	2016-07-26 15:04:01	1	2	0	0
 23478388	2016-07-26 15:08:32	1	4	0	0
 22915525	2016-07-26 15:08:42	1	2	0	0
 31957912	2016-07-26 16:07:00	1	2	0	0
 32604013	2016-07-26 16:58:17	1	2	0	0
 35867385	2016-07-26 22:00:03	1	4	0	0
 32863644	2016-07-26 22:00:21	1	2	0	0
 33266410	2016-07-26 22:00:36	1	4	0	0
 21811691	2016-07-26 22:00:47	1	2	0	0
 31825746	2016-07-26 22:00:59	1	2	0	0
 22915525	2016-07-27 06:49:06	1	4	0	0
 23478388	2016-07-27 06:49:15	1	4	0	0
 25763179	2016-07-27 06:52:39	1	4	0	0
 30303790	2016-07-27 07:04:50	1	4	0	0
 31957912	2016-07-27 07:55:29	1	4	0	0
 10262692	2016-07-27 08:55:57	1	4	0	0
 10262692	2016-07-27 08:55:58	1	4	0	0
 32604013	2016-07-27 09:47:52	1	4	0	0
 32604013	2016-07-27 09:47:53	1	4	0	0
  4581878	2016-07-27 10:55:03	1	4	0	0
 32863644	2016-07-27 13:22:45	1	4	0	0
 35867385	2016-07-27 13:37:25	1	4	0	0
 21811691	2016-07-27 13:43:59	1	4	0	0
 31825746	2016-07-27 13:48:29	1	4	0	0
 33266410	2016-07-27 13:52:13	1	4	0	0
 10262692	2016-07-27 13:57:21	1	2	0	0
 22915525	2016-07-27 14:59:29	1	4	0	0
 23478388	2016-07-27 14:59:43	1	2	0	0
 22915525	2016-07-27 15:00:01	1	2	0	0
 30303790	2016-07-27 15:00:07	1	2	0	0
 30303790	2016-07-27 15:00:14	1	2	0	0
 25763179	2016-07-27 15:02:47	1	2	0	0
  4581878	2016-07-27 15:03:50	1	2	0	0
 31957912	2016-07-27 16:01:43	1	2	0	0
 32604013	2016-07-27 17:03:07	1	2	0	0
 32863644	2016-07-27 22:00:17	1	2	0	0
 21811691	2016-07-27 22:00:27	1	4	0	0
 35867385	2016-07-27 22:00:36	1	2	0	0
 31825746	2016-07-27 22:00:44	1	2	0	0
 33266410	2016-07-27 22:00:50	1	2	0	0
 30303790	2016-07-28 06:59:58	1	4	0	0
 22915525	2016-07-28 07:03:52	1	4	0	0
 23478388	2016-07-28 07:03:59	1	4	0	0
 25763179	2016-07-28 07:04:40	1	4	0	0
 31957912	2016-07-28 07:49:58	1	4	0	0
 33266410	2016-07-28 07:55:47	1	4	0	0
 10262692	2016-07-28 08:56:41	1	4	0	0
 32604013	2016-07-28 09:49:18	1	4	0	0
  4581878	2016-07-28 11:01:49	1	4	0	0
  4581878	2016-07-28 11:01:51	1	4	0	0
 32863644	2016-07-28 13:26:25	1	4	0	0
 31825746	2016-07-28 13:34:57	1	4	0	0
 21811691	2016-07-28 13:47:14	1	4	0	0
 35867385	2016-07-28 13:51:01	1	4	0	0
 10262692	2016-07-28 13:59:24	1	2	0	0
 33266410	2016-07-28 14:00:18	1	2	0	0
 30303790	2016-07-28 14:57:41	1	4	0	0
 30303790	2016-07-28 14:57:51	1	2	0	0
  4581878	2016-07-28 15:01:19	1	4	0	0
  4581878	2016-07-28 15:01:28	1	2	0	0
 22915525	2016-07-28 15:02:15	1	2	0	0
 23478388	2016-07-28 15:03:31	1	2	0	0
 25763179	2016-07-28 15:03:56	1	2	0	0
 31957912	2016-07-28 16:00:58	1	2	0	0
 32604013	2016-07-28 16:58:49	1	2	0	0
 32863644	2016-07-28 22:00:08	1	2	0	0
 31825746	2016-07-28 22:00:21	1	4	0	0
 21811691	2016-07-28 22:00:33	1	2	0	0
 35867385	2016-07-28 22:00:43	1	2	0	0
 30303790	2016-07-29 06:45:50	1	4	0	0
 25763179	2016-07-29 06:48:40	1	4	0	0
 23478388	2016-07-29 07:02:28	1	4	0	0
 22915525	2016-07-29 07:02:33	1	4	0	0
 31957912	2016-07-29 07:50:17	1	4	0	0
 10262692	2016-07-29 08:59:13	1	4	0	0
 32604013	2016-07-29 10:02:21	1	4	0	0
 32604013	2016-07-29 10:02:23	1	4	0	0
  4581878	2016-07-29 10:51:59	1	4	0	0
 32863644	2016-07-29 13:36:05	1	4	0	0
 31825746	2016-07-29 13:46:28	1	4	0	0
 21811691	2016-07-29 13:48:08	1	4	0	0
 35867385	2016-07-29 13:50:38	1	4	0	0
 10262692	2016-07-29 14:05:44	1	4	0	0
  4581878	2016-07-29 15:00:24	1	4	0	0
 25763179	2016-07-29 15:00:37	1	4	0	0
 25763179	2016-07-29 15:00:51	1	2	0	0
 22915525	2016-07-29 15:03:26	1	4	0	0
 22915525	2016-07-29 15:04:03	1	2	0	0
 23478388	2016-07-29 15:04:15	1	2	0	0
 30303790	2016-07-29 15:53:54	1	2	0	0
 31957912	2016-07-29 16:02:09	1	2	0	0
 32604013	2016-07-29 17:03:15	1	2	0	0
 35867385	2016-07-29 22:00:03	1	4	0	0
 33266410	2016-07-29 22:00:10	1	4	0	0
 31825746	2016-07-29 22:00:18	1	4	0	0
 21811691	2016-07-29 22:00:28	1	4	0	0
 32863644	2016-07-29 22:00:39	1	2	0	0
 23478388	2016-07-30 06:56:15	1	4	0	0
 22915525	2016-07-30 06:56:19	1	4	0	0
 31825746	2016-07-30 07:44:54	1	4	0	0
 35867385	2016-07-30 07:48:15	1	4	0	0
 31957912	2016-07-30 07:49:04	1	4	0	0
 33266410	2016-07-30 07:51:22	1	4	0	0
 30303790	2016-07-30 07:54:26	1	4	0	0
 25763179	2016-07-30 07:55:21	1	4	0	0
 32863644	2016-07-30 09:54:02	1	4	0	0
 21811691	2016-07-30 09:54:13	1	4	0	0
 22915525	2016-07-30 11:03:45	1	4	0	0
 23478388	2016-07-30 11:04:12	1	2	0	0
 25763179	2016-07-30 11:59:32	1	2	0	0
 30303790	2016-07-30 11:59:42	1	2	0	0
 35867385	2016-07-30 12:00:10	1	2	0	0
 31957912	2016-07-30 12:00:38	1	2	0	0
 31825746	2016-07-30 12:00:49	1	2	0	0
 31825746	2016-07-30 12:01:05	1	2	0	0
 32604013	2016-07-30 13:59:06	1	4	0	0
 32863644	2016-07-30 14:00:05	1	2	0	0
 33266410	2016-07-30 14:00:13	1	2	0	0
 21811691	2016-07-30 14:00:34	1	2	0	0
 32604013	2016-07-30 17:59:40	1	2	0	0
 35867385	2016-07-31 17:53:15	1	4	0	0
 22915525	2016-07-31 18:19:53	1	4	0	0
 23478388	2016-07-31 18:20:02	1	4	0	0
 23478388	2016-07-31 22:58:05	1	2	0	0
 22915525	2016-07-31 22:58:17	1	2	0	0
 23478388	2016-08-01 07:05:20	1	4	0	0
 22915525	2016-08-01 07:05:28	1	4	0	0
 30303790	2016-08-01 07:07:57	1	4	0	0
 31957912	2016-08-01 07:47:17	1	4	0	0
 25763179	2016-08-01 08:47:59	1	4	0	0
 10262692	2016-08-01 08:49:39	1	4	0	0
 30720795	2016-08-01 08:54:21	1	4	0	0
 32604013	2016-08-01 09:42:00	1	4	0	0
  4581878	2016-08-01 11:04:33	1	4	0	0
 10262692	2016-08-01 13:01:43	1	4	0	0
 32863644	2016-08-01 13:02:05	1	4	0	0
 31825746	2016-08-01 13:34:49	1	4	0	0
 35867385	2016-08-01 13:38:43	1	4	0	0
 21811691	2016-08-01 13:50:56	1	4	0	0
 20089437	2016-08-01 13:52:08	1	4	0	0
 20089437	2016-08-01 13:52:51	1	2	0	0
 16693441	2016-08-01 13:53:38	1	4	0	0
 33266410	2016-08-01 13:54:14	1	4	0	0
 30720795	2016-08-01 14:06:38	1	4	0	0
 30720795	2016-08-01 14:06:44	1	4	0	0
 30303790	2016-08-01 15:01:24	1	2	0	0
 22915525	2016-08-01 15:07:41	1	2	0	0
 23478388	2016-08-01 15:08:02	1	2	0	0
 20089437	2016-08-01 15:09:17	1	2	0	0
 31957912	2016-08-01 16:01:44	1	2	0	0
 32604013	2016-08-01 16:55:14	1	2	0	0
 32604013	2016-08-01 16:55:16	1	2	0	0
 25763179	2016-08-01 16:59:37	1	4	0	0
 35867385	2016-08-01 22:00:03	1	4	0	0
 33266410	2016-08-01 22:00:09	1	4	0	0
 31825746	2016-08-01 22:00:23	1	2	0	0
 21811691	2016-08-01 22:00:36	1	2	0	0
 32863644	2016-08-01 22:00:50	1	2	0	0
 16693441	2016-08-01 22:02:12	1	2	0	0
 30720795	2016-08-02 06:47:27	1	4	0	0
 20089437	2016-08-02 06:53:35	1	4	0	0
 22915525	2016-08-02 07:03:10	1	4	0	0
 23478388	2016-08-02 07:03:19	1	4	0	0
 31957912	2016-08-02 07:50:37	1	4	0	0
 30303790	2016-08-02 07:54:44	1	4	0	0
 25763179	2016-08-02 08:53:06	1	4	0	0
 10262692	2016-08-02 08:54:32	1	4	0	0
 10262692	2016-08-02 08:54:33	1	4	0	0
 32604013	2016-08-02 09:54:49	1	4	0	0
  4581878	2016-08-02 11:22:17	1	4	0	0
 32863644	2016-08-02 13:17:13	1	4	0	0
 16693441	2016-08-02 13:28:37	1	4	0	0
 35867385	2016-08-02 13:39:40	1	4	0	0
 31825746	2016-08-02 13:39:53	1	4	0	0
 21811691	2016-08-02 13:52:04	1	4	0	0
 33266410	2016-08-02 13:53:40	1	4	0	0
 10262692	2016-08-02 13:55:01	1	2	0	0
 30720795	2016-08-02 14:01:30	1	2	0	0
 20089437	2016-08-02 15:00:53	1	4	0	0
 22915525	2016-08-02 15:11:47	1	4	0	0
 30303790	2016-08-02 16:00:10	1	2	0	0
 31957912	2016-08-02 16:00:38	1	2	0	0
 23478388	2016-08-02 16:10:49	1	2	0	0
  4581878	2016-08-02 16:25:46	1	4	0	0
 32604013	2016-08-02 16:55:57	1	2	0	0
 25763179	2016-08-02 16:58:08	1	4	0	0
 35867385	2016-08-02 22:00:08	1	4	0	0
 33266410	2016-08-02 22:00:14	1	2	0	0
 31825746	2016-08-02 22:00:28	1	4	0	0
 21811691	2016-08-02 22:01:08	1	4	0	0
 16693441	2016-08-02 22:02:03	1	2	0	0
 32863644	2016-08-02 22:02:16	1	2	0	0
 30720795	2016-08-03 06:49:21	1	4	0	0
 20089437	2016-08-03 06:49:33	1	4	0	0
 30303790	2016-08-03 07:05:22	1	4	0	0
 22915525	2016-08-03 07:06:10	1	4	0	0
 23478388	2016-08-03 07:06:20	1	4	0	0
 31957912	2016-08-03 07:51:37	1	4	0	0
 25763179	2016-08-03 08:48:05	1	4	0	0
 10262692	2016-08-03 08:53:18	1	4	0	0
 10262692	2016-08-03 08:53:19	1	4	0	0
 32604013	2016-08-03 10:02:52	1	4	0	0
  4581878	2016-08-03 11:23:20	1	4	0	0
  4581878	2016-08-03 11:23:22	1	4	0	0
 32863644	2016-08-03 13:18:50	1	4	0	0
 16693441	2016-08-03 13:31:11	1	4	0	0
 21811691	2016-08-03 13:43:14	1	4	0	0
 31825746	2016-08-03 13:45:00	1	4	0	0
 35867385	2016-08-03 13:45:10	1	4	0	0
 33266410	2016-08-03 13:46:35	1	4	0	0
 10262692	2016-08-03 14:03:17	1	2	0	0
 10262692	2016-08-03 14:03:18	1	2	0	0
 30720795	2016-08-03 14:05:19	1	2	0	0
 30303790	2016-08-03 15:01:05	1	2	0	0
 22915525	2016-08-03 15:06:42	1	2	0	0
 23478388	2016-08-03 15:08:16	1	2	0	0
 20089437	2016-08-03 15:11:28	1	2	0	0
 31957912	2016-08-03 16:00:05	1	2	0	0
  4581878	2016-08-03 16:23:25	1	4	0	0
 32604013	2016-08-03 16:59:52	1	2	0	0
 25763179	2016-08-03 17:00:00	1	2	0	0
 33266410	2016-08-03 22:00:09	1	2	0	0
 35867385	2016-08-03 22:00:17	1	2	0	0
 31825746	2016-08-03 22:00:28	1	4	0	0
 21811691	2016-08-03 22:00:53	1	2	0	0
 32863644	2016-08-03 22:01:16	1	2	0	0
 16693441	2016-08-03 22:02:20	1	2	0	0
 30720795	2016-08-04 06:50:46	1	4	0	0
 30720795	2016-08-04 06:50:50	1	4	0	0
 22915525	2016-08-04 06:51:31	1	4	0	0
 23478388	2016-08-04 06:51:40	1	4	0	0
 20089437	2016-08-04 06:55:13	1	4	0	0
 30303790	2016-08-04 06:59:05	1	4	0	0
 31957912	2016-08-04 07:52:02	1	4	0	0
 10262692	2016-08-04 08:53:26	1	4	0	0
 10262692	2016-08-04 08:53:27	1	4	0	0
 25763179	2016-08-04 09:01:34	1	4	0	0
 32604013	2016-08-04 09:33:57	1	4	0	0
  4581878	2016-08-04 11:33:26	1	4	0	0
  4581878	2016-08-04 11:33:31	1	4	0	0
  4581878	2016-08-04 11:33:32	1	4	0	0
  4581878	2016-08-04 11:33:33	1	4	0	0
  4581878	2016-08-04 11:33:35	1	4	0	0
  4581878	2016-08-04 11:33:36	1	4	0	0
  4581878	2016-08-04 11:33:38	1	4	0	0
 31825746	2016-08-04 13:36:42	1	4	0	0
 32863644	2016-08-04 13:41:57	1	4	0	0
 35867385	2016-08-04 13:49:39	1	4	0	0
 35867385	2016-08-04 13:49:41	1	4	0	0
 33266410	2016-08-04 13:49:58	1	4	0	0
 21811691	2016-08-04 13:52:26	1	4	0	0
 16693441	2016-08-04 13:52:54	1	4	0	0
 10262692	2016-08-04 13:56:33	1	2	0	0
 10262692	2016-08-04 13:56:34	1	2	0	0
 30720795	2016-08-04 14:03:00	1	4	0	0
 30720795	2016-08-04 14:03:04	1	2	0	0
 22915525	2016-08-04 15:03:22	1	2	0	0
 23478388	2016-08-04 15:04:43	1	2	0	0
 23478388	2016-08-04 15:04:45	1	2	0	0
 20089437	2016-08-04 15:07:02	1	2	0	0
 30303790	2016-08-04 15:14:32	1	2	0	0
 31957912	2016-08-04 16:00:28	1	4	0	0
 31957912	2016-08-04 16:00:40	1	2	0	0
  4581878	2016-08-04 16:34:17	1	4	0	0
 32604013	2016-08-04 16:58:32	1	2	0	0
 25763179	2016-08-04 17:00:06	1	4	0	0
 25763179	2016-08-04 17:00:17	1	2	0	0
 33266410	2016-08-04 22:00:28	1	2	0	0
 35867385	2016-08-04 22:00:34	1	2	0	0
 31825746	2016-08-04 22:03:58	1	4	0	0
 21811691	2016-08-04 22:04:10	1	2	0	0
 32863644	2016-08-04 22:04:24	1	4	0	0
 16693441	2016-08-04 22:05:40	1	4	0	0
 30720795	2016-08-05 06:49:50	1	4	0	0
 20089437	2016-08-05 06:50:08	1	4	0	0
 22915525	2016-08-05 06:51:18	1	4	0	0
 23478388	2016-08-05 07:03:23	1	4	0	0
 30303790	2016-08-05 07:04:32	1	4	0	0
 31957912	2016-08-05 07:50:22	1	4	0	0
 31957912	2016-08-05 07:50:24	1	4	0	0
 10262692	2016-08-05 08:54:32	1	4	0	0
 25763179	2016-08-05 08:58:54	1	4	0	0
 32604013	2016-08-05 10:00:06	1	4	0	0
  4581878	2016-08-05 11:14:48	1	4	0	0
 32863644	2016-08-05 13:31:25	1	4	0	0
 16693441	2016-08-05 13:34:16	1	4	0	0
 21811691	2016-08-05 13:47:35	1	4	0	0
 31825746	2016-08-05 13:47:52	1	4	0	0
 35867385	2016-08-05 13:49:41	1	4	0	0
 33266410	2016-08-05 13:54:08	1	4	0	0
 10262692	2016-08-05 13:59:05	1	2	0	0
 30720795	2016-08-05 14:03:21	1	2	0	0
 30720795	2016-08-05 14:03:23	1	2	0	0
 30303790	2016-08-05 15:00:43	1	2	0	0
 20089437	2016-08-05 15:04:17	1	2	0	0
 23478388	2016-08-05 15:05:26	1	2	0	0
 22915525	2016-08-05 15:06:32	1	2	0	0
 31957912	2016-08-05 16:00:05	1	2	0	0
  4581878	2016-08-05 16:26:40	1	4	0	0
  4581878	2016-08-05 16:26:42	1	4	0	0
 25763179	2016-08-05 16:56:57	1	2	0	0
 32604013	2016-08-05 16:58:01	1	2	0	0
 33266410	2016-08-05 22:00:11	1	4	0	0
 35867385	2016-08-05 22:00:20	1	2	0	0
 31825746	2016-08-05 22:01:00	1	4	0	0
 16693441	2016-08-05 22:01:24	1	2	0	0
 21811691	2016-08-05 22:01:39	1	2	0	0
 32863644	2016-08-05 22:02:11	1	4	0	0
 23478388	2016-08-06 06:54:11	1	4	0	0
 22915525	2016-08-06 06:54:28	1	4	0	0
 35867385	2016-08-06 07:50:28	1	4	0	0
 35867385	2016-08-06 07:50:30	1	4	0	0
 21811691	2016-08-06 07:52:24	1	4	0	0
 32863644	2016-08-06 07:52:54	1	4	0	0
 16693441	2016-08-06 07:53:02	1	4	0	0
 33266410	2016-08-06 07:53:10	1	4	0	0
 30303790	2016-08-06 07:53:18	1	4	0	0
 31957912	2016-08-06 07:56:30	1	4	0	0
 31825746	2016-08-06 08:00:19	1	4	0	0
 32604013	2016-08-06 08:00:31	1	4	0	0
 25763179	2016-08-06 08:00:37	1	4	0	0
 30720795	2016-08-06 08:00:48	1	4	0	0
 23478388	2016-08-06 11:12:32	1	4	0	0
 22915525	2016-08-06 11:12:59	1	2	0	0
 30303790	2016-08-06 11:58:22	1	2	0	0
 31957912	2016-08-06 11:58:34	1	2	0	0
 33266410	2016-08-06 12:00:15	1	2	0	0
 35867385	2016-08-06 12:00:21	1	2	0	0
 16693441	2016-08-06 12:01:06	1	2	0	0
 32604013	2016-08-06 12:01:22	1	2	0	0
 30720795	2016-08-06 12:01:29	1	2	0	0
 31825746	2016-08-06 12:02:26	1	2	0	0
 21811691	2016-08-06 12:02:38	1	2	0	0
 32863644	2016-08-06 12:02:49	1	2	0	0
 25763179	2016-08-06 12:03:39	1	2	0	0
 20089437	2016-08-06 13:48:54	1	4	0	0
 20089437	2016-08-06 18:04:25	1	2	0	0
 20089437	2016-08-08 06:50:04	1	4	0	0
 30720795	2016-08-08 06:50:12	1	4	0	0
 22915525	2016-08-08 06:51:38	1	4	0	0
 23478388	2016-08-08 06:51:49	1	4	0	0
 30303790	2016-08-08 06:52:46	1	4	0	0
 31957912	2016-08-08 07:48:29	1	4	0	0
 10262692	2016-08-08 08:54:56	1	4	0	0
 10262692	2016-08-08 08:54:56	1	4	0	0
 25763179	2016-08-08 08:55:44	1	4	0	0
 32604013	2016-08-08 09:54:39	1	4	0	0
  4581878	2016-08-08 11:16:14	1	4	0	0
 10262692	2016-08-08 13:04:50	1	4	0	0
 31825746	2016-08-08 13:37:58	1	4	0	0
 21811691	2016-08-08 13:38:14	1	4	0	0
 35867385	2016-08-08 13:51:20	1	4	0	0
 32863644	2016-08-08 13:56:22	1	4	0	0
 16693441	2016-08-08 13:56:36	1	4	0	0
 30720795	2016-08-08 14:02:14	1	2	0	0
 22915525	2016-08-08 15:06:56	1	4	0	0
 23478388	2016-08-08 15:07:05	1	2	0	0
 30303790	2016-08-08 15:07:47	1	2	0	0
 20089437	2016-08-08 15:14:14	1	2	0	0
 31957912	2016-08-08 16:07:26	1	2	0	0
 32604013	2016-08-08 16:56:05	1	4	0	0
 25763179	2016-08-08 17:00:05	1	4	0	0
 25763179	2016-08-08 17:00:14	1	2	0	0
 35867385	2016-08-08 22:00:04	1	4	0	0
 31825746	2016-08-08 22:00:14	1	2	0	0
 16693441	2016-08-08 22:02:00	1	2	0	0
 32863644	2016-08-08 22:02:23	1	2	0	0
 21811691	2016-08-08 22:02:32	1	2	0	0
 30720795	2016-08-09 06:49:12	1	4	0	0
 30720795	2016-08-09 06:49:15	1	4	0	0
 20089437	2016-08-09 06:51:54	1	4	0	0
 30303790	2016-08-09 06:52:15	1	4	0	0
 22915525	2016-08-09 06:53:42	1	4	0	0
 23478388	2016-08-09 06:53:51	1	4	0	0
 31957912	2016-08-09 08:03:28	1	4	0	0
 10262692	2016-08-09 08:56:28	1	4	0	0
 10262692	2016-08-09 08:56:28	1	4	0	0
 25763179	2016-08-09 08:59:59	1	4	0	0
 32604013	2016-08-09 09:57:06	1	4	0	0
  4581878	2016-08-09 11:07:29	1	4	0	0
 21811691	2016-08-09 13:39:24	1	4	0	0
 31825746	2016-08-09 13:39:42	1	4	0	0
 32863644	2016-08-09 13:42:42	1	4	0	0
 16693441	2016-08-09 13:44:46	1	4	0	0
 35867385	2016-08-09 13:51:13	1	4	0	0
 10262692	2016-08-09 14:01:03	1	2	0	0
 10262692	2016-08-09 14:01:04	1	2	0	0
 30720795	2016-08-09 14:01:33	1	2	0	0
 30720795	2016-08-09 14:01:37	1	2	0	0
 30303790	2016-08-09 14:56:37	1	2	0	0
 22915525	2016-08-09 15:01:31	1	2	0	0
 20089437	2016-08-09 15:03:52	1	2	0	0
 23478388	2016-08-09 15:04:29	1	2	0	0
 31957912	2016-08-09 16:01:00	1	4	0	0
  4581878	2016-08-09 16:28:57	1	2	0	0
 32604013	2016-08-09 16:56:15	1	2	0	0
 25763179	2016-08-09 16:59:16	1	2	0	0
 35867385	2016-08-09 22:00:44	1	4	0	0
 31825746	2016-08-09 22:00:59	1	2	0	0
 32863644	2016-08-09 22:01:35	1	2	0	0
 21811691	2016-08-09 22:02:31	1	2	0	0
 16693441	2016-08-09 22:04:02	1	2	0	0
 20089437	2016-08-10 06:49:24	1	4	0	0
 22915525	2016-08-10 06:51:19	1	4	0	0
 23478388	2016-08-10 06:51:28	1	4	0	0
 30720795	2016-08-10 06:56:20	1	4	0	0
 30303790	2016-08-10 07:06:36	1	4	0	0
 31957912	2016-08-10 07:47:08	1	4	0	0
 25763179	2016-08-10 08:54:53	1	4	0	0
 10262692	2016-08-10 08:55:37	1	4	0	0
 10262692	2016-08-10 08:55:38	1	4	0	0
 32604013	2016-08-10 09:51:30	1	4	0	0
  4581878	2016-08-10 11:16:21	1	4	0	0
 32863644	2016-08-10 13:11:46	1	4	0	0
 16693441	2016-08-10 13:43:16	1	4	0	0
 31825746	2016-08-10 13:46:34	1	4	0	0
 21811691	2016-08-10 13:46:46	1	4	0	0
 35867385	2016-08-10 13:51:31	1	4	0	0
 35867385	2016-08-10 13:51:33	1	4	0	0
 10262692	2016-08-10 13:57:23	1	2	0	0
 10262692	2016-08-10 13:57:23	1	2	0	0
 30720795	2016-08-10 14:03:04	1	2	0	0
 30720795	2016-08-10 14:03:07	1	2	0	0
 20089437	2016-08-10 15:03:18	1	4	0	0
 22915525	2016-08-10 15:08:56	1	2	0	0
 23478388	2016-08-10 15:09:12	1	2	0	0
 30303790	2016-08-10 15:11:32	1	2	0	0
 31957912	2016-08-10 16:00:28	1	2	0	0
  4581878	2016-08-10 16:27:15	1	4	0	0
 32604013	2016-08-10 16:52:35	1	2	0	0
 25763179	2016-08-10 16:58:06	1	2	0	0
 35867385	2016-08-10 22:00:05	1	4	0	0
 31825746	2016-08-10 22:00:15	1	2	0	0
 21811691	2016-08-10 22:00:27	1	2	0	0
 16693441	2016-08-10 22:00:47	1	2	0	0
 32863644	2016-08-10 22:01:18	1	2	0	0
 30720795	2016-08-11 06:49:28	1	4	0	0
 20089437	2016-08-11 06:53:54	1	4	0	0
 22915525	2016-08-11 06:58:49	1	4	0	0
 30303790	2016-08-11 06:59:01	1	4	0	0
 23478388	2016-08-11 07:06:18	1	4	0	0
 31957912	2016-08-11 07:49:02	1	4	0	0
 25763179	2016-08-11 08:56:25	1	4	0	0
 10262692	2016-08-11 08:56:43	1	4	0	0
 32604013	2016-08-11 09:58:04	1	4	0	0
  4581878	2016-08-11 11:05:41	1	4	0	0
 32863644	2016-08-11 13:05:03	1	4	0	0
 21811691	2016-08-11 13:38:52	1	4	0	0
 31825746	2016-08-11 13:39:16	1	4	0	0
 33266410	2016-08-11 13:47:18	1	4	0	0
 16693441	2016-08-11 13:49:23	1	4	0	0
 35867385	2016-08-11 13:49:50	1	4	0	0
 30720795	2016-08-11 13:57:23	1	2	0	0
 30720795	2016-08-11 13:57:26	1	2	0	0
 10262692	2016-08-11 14:00:58	1	2	0	0
 20089437	2016-08-11 14:53:52	1	4	0	0
 22915525	2016-08-11 14:59:52	1	2	0	0
 23478388	2016-08-11 15:00:09	1	2	0	0
 30303790	2016-08-11 15:02:34	1	2	0	0
 31957912	2016-08-11 16:01:04	1	2	0	0
  4581878	2016-08-11 16:24:32	1	4	0	0
 25763179	2016-08-11 16:53:44	1	2	0	0
 32604013	2016-08-11 16:54:31	1	2	0	0
 33266410	2016-08-11 22:00:11	1	2	0	0
 35867385	2016-08-11 22:00:17	1	2	0	0
 35867385	2016-08-11 22:00:19	1	2	0	0
 16693441	2016-08-11 22:00:29	1	4	0	0
 21811691	2016-08-11 22:00:41	1	2	0	0
 32863644	2016-08-11 22:01:15	1	4	0	0
 31825746	2016-08-11 22:01:25	1	2	0	0
 30720795	2016-08-12 06:49:21	1	4	0	0
 30720795	2016-08-12 06:49:27	1	4	0	0
 30303790	2016-08-12 06:52:18	1	4	0	0
 25763179	2016-08-12 07:01:31	1	4	0	0
 22915525	2016-08-12 07:04:36	1	4	0	0
 31957912	2016-08-12 08:00:44	1	4	0	0
 20089437	2016-08-12 08:43:58	1	4	0	0
 10262692	2016-08-12 08:51:27	1	4	0	0
 32604013	2016-08-12 09:49:54	1	4	0	0
  4581878	2016-08-12 11:14:10	1	4	0	0
 32863644	2016-08-12 13:06:13	1	4	0	0
 16693441	2016-08-12 13:09:46	1	4	0	0
 31825746	2016-08-12 13:42:45	1	4	0	0
 35867385	2016-08-12 13:44:13	1	4	0	0
 33266410	2016-08-12 13:48:15	1	4	0	0
 21811691	2016-08-12 13:49:26	1	4	0	0
 10262692	2016-08-12 13:55:28	1	2	0	0
 30720795	2016-08-12 14:12:59	1	2	0	0
 30720795	2016-08-12 14:13:02	1	2	0	0
 30303790	2016-08-12 14:58:30	1	2	0	0
 25763179	2016-08-12 15:01:50	1	2	0	0
 22915525	2016-08-12 15:03:10	1	2	0	0
 31957912	2016-08-12 16:00:34	1	2	0	0
  4581878	2016-08-12 16:26:16	1	4	0	0
 32604013	2016-08-12 16:50:59	1	4	0	0
 20089437	2016-08-12 16:57:01	1	2	0	0
 33266410	2016-08-12 22:00:06	1	4	0	0
 31825746	2016-08-12 22:00:30	1	2	0	0
 35867385	2016-08-12 22:00:45	1	2	0	0
 33266410	2016-08-12 22:00:58	1	2	0	0
 16693441	2016-08-12 22:01:11	1	2	0	0
 21811691	2016-08-12 22:01:21	1	2	0	0
 32863644	2016-08-12 22:02:27	1	2	0	0
 23478388	2016-08-13 06:56:44	1	4	0	0
 22915525	2016-08-13 06:57:13	1	4	0	0
 32863644	2016-08-13 07:50:24	1	4	0	0
 31957912	2016-08-13 07:50:33	1	4	0	0
 20089437	2016-08-13 07:50:45	1	4	0	0
 21811691	2016-08-13 07:50:58	1	4	0	0
 16693441	2016-08-13 07:51:13	1	4	0	0
 33266410	2016-08-13 07:51:22	1	4	0	0
 35867385	2016-08-13 07:51:58	1	4	0	0
 35867385	2016-08-13 07:52:00	1	4	0	0
 25763179	2016-08-13 07:56:52	1	4	0	0
 32604013	2016-08-13 07:57:02	1	4	0	0
 30720795	2016-08-13 07:57:07	1	4	0	0
 22915525	2016-08-13 11:45:02	1	2	0	0
 23478388	2016-08-13 11:45:15	1	2	0	0
 30720795	2016-08-13 11:56:48	1	4	0	0
 31957912	2016-08-13 11:59:11	1	2	0	0
 32604013	2016-08-13 11:59:23	1	2	0	0
 33266410	2016-08-13 12:00:04	1	2	0	0
 35867385	2016-08-13 12:00:09	1	2	0	0
 32863644	2016-08-13 12:00:24	1	2	0	0
 21811691	2016-08-13 12:00:34	1	2	0	0
 20089437	2016-08-13 12:00:55	1	2	0	0
 16693441	2016-08-13 12:01:04	1	2	0	0
 25763179	2016-08-13 12:01:33	1	2	0	0
 30303790	2016-08-13 14:06:12	1	4	0	0
 30303790	2016-08-13 17:48:18	1	2	0	0
 30720795	2016-08-16 06:47:25	1	4	0	0
 22915525	2016-08-16 06:51:29	1	4	0	0
 23478388	2016-08-16 06:51:38	1	4	0	0
 20089437	2016-08-16 06:53:32	1	4	0	0
 30303790	2016-08-16 07:04:20	1	4	0	0
 31957912	2016-08-16 07:53:54	1	4	0	0
 25763179	2016-08-16 08:55:37	1	4	0	0
 10262692	2016-08-16 08:57:58	1	4	0	0
 10262692	2016-08-16 08:57:58	1	4	0	0
  4581878	2016-08-16 11:28:32	1	4	0	0
 35867385	2016-08-16 13:37:59	1	4	0	0
 35867385	2016-08-16 13:38:00	1	4	0	0
 21811691	2016-08-16 13:48:23	1	4	0	0
 31825746	2016-08-16 13:48:36	1	4	0	0
 33266410	2016-08-16 13:55:56	1	4	0	0
 32863644	2016-08-16 13:57:43	1	4	0	0
 16693441	2016-08-16 13:57:58	1	4	0	0
 10262692	2016-08-16 13:59:47	1	2	0	0
 30720795	2016-08-16 14:27:44	1	2	0	0
 30303790	2016-08-16 14:58:08	1	2	0	0
 22915525	2016-08-16 15:10:28	1	2	0	0
 23478388	2016-08-16 15:10:53	1	2	0	0
 20089437	2016-08-16 15:16:01	1	2	0	0
 31957912	2016-08-16 16:00:06	1	2	0	0
  4581878	2016-08-16 16:24:35	1	4	0	0
 25763179	2016-08-16 16:55:13	1	2	0	0
 33266410	2016-08-16 22:00:05	1	2	0	0
 35867385	2016-08-16 22:00:31	1	4	0	0
 31825746	2016-08-16 22:00:39	1	4	0	0
 31825746	2016-08-16 22:00:45	1	4	0	0
 35867385	2016-08-16 22:01:11	1	2	0	0
 21811691	2016-08-16 22:01:32	1	2	0	0
 16693441	2016-08-16 22:01:40	1	2	0	0
 16693441	2016-08-16 22:01:48	1	2	0	0
 32863644	2016-08-16 22:02:27	1	2	0	0
 23478388	2016-08-17 06:04:59	1	4	0	0
 22915525	2016-08-17 06:05:09	1	4	0	0
 20089437	2016-08-17 06:47:49	1	4	0	0
 30720795	2016-08-17 06:56:49	1	4	0	0
 30303790	2016-08-17 07:09:27	1	4	0	0
 31957912	2016-08-17 07:50:56	1	4	0	0
 25763179	2016-08-17 08:55:45	1	4	0	0
 10262692	2016-08-17 08:57:08	1	4	0	0
  4581878	2016-08-17 11:12:09	1	4	0	0
 33266410	2016-08-17 12:41:07	1	4	0	0
 35867385	2016-08-17 13:38:14	1	4	0	0
 31825746	2016-08-17 13:45:11	1	4	0	0
 16693441	2016-08-17 13:45:39	1	4	0	0
 32863644	2016-08-17 13:53:33	1	4	0	0
 21811691	2016-08-17 13:56:10	1	4	0	0
 30720795	2016-08-17 14:01:16	1	2	0	0
 30720795	2016-08-17 14:01:18	1	2	0	0
 10262692	2016-08-17 14:02:16	1	2	0	0
 30303790	2016-08-17 14:56:17	1	2	0	0
 20089437	2016-08-17 15:00:10	1	2	0	0
 22915525	2016-08-17 15:13:16	1	4	0	0
 22915525	2016-08-17 15:13:23	1	2	0	0
 23478388	2016-08-17 15:13:42	1	2	0	0
 31957912	2016-08-17 16:00:21	1	2	0	0
  4581878	2016-08-17 16:21:25	1	4	0	0
 25763179	2016-08-17 16:55:24	1	2	0	0
 33266410	2016-08-17 21:00:09	1	2	0	0
 35867385	2016-08-17 22:01:17	1	4	0	0
 31825746	2016-08-17 22:01:30	1	2	0	0
 32863644	2016-08-17 22:02:51	1	2	0	0
 21811691	2016-08-17 22:03:25	1	2	0	0
 16693441	2016-08-17 22:03:44	1	2	0	0
 20089437	2016-08-18 06:48:48	1	4	0	0
 30720795	2016-08-18 06:49:05	1	4	0	0
 22915525	2016-08-18 06:56:26	1	4	0	0
 23478388	2016-08-18 06:56:34	1	4	0	0
 30303790	2016-08-18 07:06:52	1	4	0	0
 30303790	2016-08-18 07:06:53	1	4	0	0
 31957912	2016-08-18 07:49:17	1	4	0	0
 25763179	2016-08-18 09:01:06	1	4	0	0
 10262692	2016-08-18 09:03:29	1	4	0	0
 32604013	2016-08-18 10:06:11	1	4	0	0
  4581878	2016-08-18 11:07:06	1	4	0	0
 32863644	2016-08-18 13:18:17	1	4	0	0
 31825746	2016-08-18 13:34:50	1	4	0	0
 21811691	2016-08-18 13:42:31	1	4	0	0
 16693441	2016-08-18 13:45:49	1	4	0	0
 33266410	2016-08-18 13:52:51	1	4	0	0
 35867385	2016-08-18 13:53:27	1	4	0	0
 30720795	2016-08-18 13:58:49	1	2	0	0
 10262692	2016-08-18 14:00:10	1	2	0	0
 20089437	2016-08-18 15:00:11	1	2	0	0
 22915525	2016-08-18 15:09:31	1	2	0	0
 23478388	2016-08-18 15:09:48	1	2	0	0
 30303790	2016-08-18 15:20:09	1	2	0	0
 31957912	2016-08-18 16:00:48	1	2	0	0
  4581878	2016-08-18 16:15:21	1	4	0	0
 32604013	2016-08-18 16:52:24	1	2	0	0
 25763179	2016-08-18 16:59:27	1	2	0	0
 35867385	2016-08-18 22:00:03	1	4	0	0
 33266410	2016-08-18 22:00:11	1	2	0	0
 31825746	2016-08-18 22:01:36	1	2	0	0
 21811691	2016-08-18 22:01:48	1	2	0	0
 32863644	2016-08-18 22:02:00	1	2	0	0
 16693441	2016-08-18 22:02:19	1	2	0	0
 22915525	2016-08-19 06:51:43	1	4	0	0
 23478388	2016-08-19 06:51:56	1	4	0	0
 20089437	2016-08-19 06:57:42	1	4	0	0
 30720795	2016-08-19 06:57:53	1	4	0	0
 30303790	2016-08-19 07:07:38	1	4	0	0
 31957912	2016-08-19 07:57:17	1	4	0	0
 10262692	2016-08-19 09:02:22	1	4	0	0
 25763179	2016-08-19 09:15:13	1	4	0	0
 32604013	2016-08-19 09:42:15	1	4	0	0
  4581878	2016-08-19 11:03:42	1	4	0	0
 31825746	2016-08-19 13:42:37	1	4	0	0
 32863644	2016-08-19 13:45:53	1	4	0	0
 33266410	2016-08-19 13:51:20	1	4	0	0
 35867385	2016-08-19 13:52:08	1	4	0	0
 21811691	2016-08-19 13:53:02	1	4	0	0
 16693441	2016-08-19 13:54:35	1	4	0	0
 10262692	2016-08-19 13:59:09	1	2	0	0
 30720795	2016-08-19 14:01:10	1	2	0	0
 20089437	2016-08-19 15:02:42	1	4	0	0
 30303790	2016-08-19 15:04:13	1	2	0	0
 22915525	2016-08-19 15:12:54	1	2	0	0
 23478388	2016-08-19 15:14:07	1	2	0	0
 31957912	2016-08-19 16:00:44	1	4	0	0
  4581878	2016-08-19 16:47:07	1	4	0	0
 32604013	2016-08-19 16:53:45	1	2	0	0
 25763179	2016-08-19 16:57:17	1	2	0	0
 33266410	2016-08-19 22:00:08	1	2	0	0
 31825746	2016-08-19 22:00:17	1	2	0	0
 35867385	2016-08-19 22:00:28	1	2	0	0
 21811691	2016-08-19 22:00:40	1	2	0	0
 32863644	2016-08-19 22:01:00	1	2	0	0
 16693441	2016-08-19 22:01:08	1	2	0	0
 22915525	2016-08-20 06:56:52	1	4	0	0
 23478388	2016-08-20 06:57:04	1	4	0	0
 31825746	2016-08-20 07:43:31	1	4	0	0
 21811691	2016-08-20 07:44:42	1	4	0	0
 32863644	2016-08-20 07:45:00	1	4	0	0
 20089437	2016-08-20 07:45:24	1	4	0	0
 16693441	2016-08-20 07:45:41	1	4	0	0
 33266410	2016-08-20 07:51:52	1	2	0	0
 31957912	2016-08-20 07:52:14	1	4	0	0
 33266410	2016-08-20 07:52:36	1	4	0	0
 30303790	2016-08-20 07:53:10	1	4	0	0
 32604013	2016-08-20 07:56:19	1	4	0	0
 30720795	2016-08-20 07:56:26	1	4	0	0
 35867385	2016-08-20 07:56:57	1	4	0	0
 22915525	2016-08-20 11:22:39	1	2	0	0
 23478388	2016-08-20 11:22:56	1	2	0	0
 30303790	2016-08-20 11:54:36	1	2	0	0
 31957912	2016-08-20 11:54:54	1	4	0	0
 20089437	2016-08-20 11:59:13	1	2	0	0
 16693441	2016-08-20 11:59:43	1	2	0	0
 33266410	2016-08-20 12:00:03	1	2	0	0
 32604013	2016-08-20 12:00:10	1	2	0	0
 30720795	2016-08-20 12:00:18	1	2	0	0
 31825746	2016-08-20 12:01:07	1	2	0	0
 35867385	2016-08-20 12:01:20	1	2	0	0
 21811691	2016-08-20 12:02:10	1	2	0	0
 32863644	2016-08-20 12:02:51	1	2	0	0
 25763179	2016-08-20 12:56:20	1	4	0	0
 25763179	2016-08-20 16:58:18	1	4	0	0
 23478388	2016-08-22 06:54:31	1	4	0	0
 22915525	2016-08-22 06:54:43	1	4	0	0
 20089437	2016-08-22 06:57:23	1	4	0	0
 30720795	2016-08-22 06:57:34	1	4	0	0
 30303790	2016-08-22 07:23:04	1	4	0	0
 31957912	2016-08-22 07:49:14	1	4	0	0
 25763179	2016-08-22 08:55:52	1	4	0	0
 10262692	2016-08-22 08:59:51	1	4	0	0
 32604013	2016-08-22 09:51:51	1	4	0	0
 32604013	2016-08-22 09:51:53	1	4	0	0
  4581878	2016-08-22 11:14:32	1	4	0	0
 10262692	2016-08-22 13:07:52	1	4	0	0
 10262692	2016-08-22 13:07:53	1	4	0	0
 31825746	2016-08-22 13:37:42	1	4	0	0
 33266410	2016-08-22 13:46:20	1	4	0	0
 21811691	2016-08-22 13:48:34	1	4	0	0
 32863644	2016-08-22 13:53:09	1	4	0	0
 16693441	2016-08-22 13:53:24	1	4	0	0
 35867385	2016-08-22 13:58:07	1	4	0	0
 30720795	2016-08-22 14:04:29	1	2	0	0
 22915525	2016-08-22 15:02:15	1	4	0	0
 23478388	2016-08-22 15:02:32	1	2	0	0
 20089437	2016-08-22 15:11:28	1	2	0	0
 30303790	2016-08-22 15:18:43	1	2	0	0
 31957912	2016-08-22 16:00:23	1	2	0	0
  4581878	2016-08-22 16:21:39	1	4	0	0
  4581878	2016-08-22 16:21:42	1	4	0	0
 25763179	2016-08-22 16:55:12	1	2	0	0
 32604013	2016-08-22 16:57:39	1	4	0	0
 35867385	2016-08-22 22:00:05	1	2	0	0
 33266410	2016-08-22 22:00:17	1	2	0	0
 16693441	2016-08-22 22:00:29	1	2	0	0
 31825746	2016-08-22 22:01:18	1	4	0	0
 31825746	2016-08-22 22:01:24	1	4	0	0
 21811691	2016-08-22 22:01:49	1	2	0	0
 32863644	2016-08-22 22:02:46	1	2	0	0
 22915525	2016-08-23 06:51:29	1	4	0	0
 23478388	2016-08-23 06:51:45	1	4	0	0
 20089437	2016-08-23 06:53:36	1	4	0	0
 30720795	2016-08-23 06:58:55	1	4	0	0
 30303790	2016-08-23 07:10:44	1	4	0	0
 31957912	2016-08-23 07:52:03	1	4	0	0
 25763179	2016-08-23 08:55:58	1	4	0	0
 10262692	2016-08-23 09:00:08	1	4	0	0
 32604013	2016-08-23 09:49:12	1	4	0	0
  4581878	2016-08-23 11:11:00	1	4	0	0
 21811691	2016-08-23 13:48:05	1	4	0	0
 33266410	2016-08-23 13:50:25	1	4	0	0
 16693441	2016-08-23 13:52:05	1	4	0	0
 32863644	2016-08-23 13:52:21	1	4	0	0
 10262692	2016-08-23 13:58:45	1	2	0	0
 30720795	2016-08-23 13:59:31	1	2	0	0
 30720795	2016-08-23 13:59:34	1	2	0	0
 35867385	2016-08-23 13:59:41	1	2	0	0
 23478388	2016-08-23 14:58:17	1	2	0	0
 22915525	2016-08-23 14:58:53	1	2	0	0
 20089437	2016-08-23 15:00:01	1	2	0	0
 30303790	2016-08-23 15:05:43	1	2	0	0
 31957912	2016-08-23 15:59:23	1	2	0	0
  4581878	2016-08-23 16:24:00	1	4	0	0
 32604013	2016-08-23 16:52:01	1	4	0	0
 32604013	2016-08-23 16:52:08	1	2	0	0
 25763179	2016-08-23 16:56:29	1	2	0	0
 33266410	2016-08-23 22:00:23	1	2	0	0
 35867385	2016-08-23 22:00:31	1	2	0	0
 16693441	2016-08-23 22:00:46	1	2	0	0
 21811691	2016-08-23 22:01:26	1	2	0	0
 32863644	2016-08-23 22:01:59	1	2	0	0
 20089437	2016-08-24 06:51:58	1	4	0	0
 22915525	2016-08-24 06:53:06	1	4	0	0
 23478388	2016-08-24 06:53:25	1	4	0	0
 30720795	2016-08-24 06:59:13	1	4	0	0
 30303790	2016-08-24 07:07:45	1	4	0	0
 31957912	2016-08-24 07:47:52	1	4	0	0
 25763179	2016-08-24 08:45:03	1	4	0	0
 10262692	2016-08-24 08:58:13	1	4	0	0
 32604013	2016-08-24 09:51:53	1	4	0	0
  4581878	2016-08-24 11:02:44	1	4	0	0
 16693441	2016-08-24 13:29:22	1	4	0	0
 32863644	2016-08-24 13:34:05	1	4	0	0
 33266410	2016-08-24 13:49:10	1	4	0	0
 35867385	2016-08-24 13:54:45	1	4	0	0
 21811691	2016-08-24 13:55:21	1	4	0	0
 10262692	2016-08-24 13:58:32	1	2	0	0
 30720795	2016-08-24 13:59:28	1	2	0	0
 20089437	2016-08-24 15:01:27	1	4	0	0
 30303790	2016-08-24 15:12:01	1	2	0	0
 22915525	2016-08-24 15:13:42	1	2	0	0
 23478388	2016-08-24 15:13:54	1	2	0	0
 31957912	2016-08-24 16:00:56	1	4	0	0
 25763179	2016-08-24 16:57:08	1	2	0	0
 32604013	2016-08-24 16:57:48	1	2	0	0
 35867385	2016-08-24 22:00:05	1	2	0	0
 33266410	2016-08-24 22:00:12	1	2	0	0
 33266410	2016-08-24 22:00:14	1	2	0	0
 16693441	2016-08-24 22:01:10	1	2	0	0
 32863644	2016-08-24 22:02:38	1	2	0	0
 21811691	2016-08-24 22:02:50	1	2	0	0
 23478388	2016-08-25 06:53:02	1	4	0	0
 20089437	2016-08-25 06:55:23	1	4	0	0
 30720795	2016-08-25 06:55:47	1	4	0	0
 22915525	2016-08-25 06:57:32	1	4	0	0
 30303790	2016-08-25 07:09:26	1	4	0	0
 31957912	2016-08-25 07:47:35	1	4	0	0
 25763179	2016-08-25 09:01:19	1	4	0	0
 10262692	2016-08-25 09:01:49	1	4	0	0
 10262692	2016-08-25 09:01:50	1	4	0	0
 32604013	2016-08-25 09:51:54	1	4	0	0
  4581878	2016-08-25 11:01:11	1	4	0	0
 32863644	2016-08-25 12:59:30	1	4	0	0
 31825746	2016-08-25 13:43:10	1	4	0	0
 33266410	2016-08-25 13:48:34	1	4	0	0
 21811691	2016-08-25 13:48:46	1	4	0	0
 16693441	2016-08-25 13:49:03	1	4	0	0
 35867385	2016-08-25 13:53:29	1	4	0	0
 30720795	2016-08-25 13:56:40	1	2	0	0
 10262692	2016-08-25 13:57:23	1	2	0	0
 10262692	2016-08-25 13:57:23	1	2	0	0
 30303790	2016-08-25 14:55:11	1	2	0	0
 30303790	2016-08-25 14:55:12	1	2	0	0
 20089437	2016-08-25 14:59:10	1	2	0	0
 23478388	2016-08-25 14:59:51	1	2	0	0
 22915525	2016-08-25 15:00:06	1	2	0	0
 31957912	2016-08-25 16:02:26	1	2	0	0
  4581878	2016-08-25 16:31:53	1	4	0	0
 32604013	2016-08-25 16:52:01	1	2	0	0
 25763179	2016-08-25 16:59:08	1	2	0	0
 33266410	2016-08-25 22:00:06	1	2	0	0
 35867385	2016-08-25 22:00:16	1	2	0	0
 31825746	2016-08-25 22:00:36	1	2	0	0
 16693441	2016-08-25 22:00:54	1	4	0	0
 32863644	2016-08-25 22:01:07	1	2	0	0
 21811691	2016-08-25 22:01:33	1	2	0	0
 23478388	2016-08-26 06:54:45	1	4	0	0
 22915525	2016-08-26 06:54:55	1	4	0	0
 20089437	2016-08-26 06:59:39	1	4	0	0
 30720795	2016-08-26 06:59:59	1	4	0	0
 30303790	2016-08-26 07:09:35	1	4	0	0
 31957912	2016-08-26 07:50:10	1	4	0	0
 25763179	2016-08-26 08:45:30	1	4	0	0
 10262692	2016-08-26 08:56:53	1	4	0	0
 10262692	2016-08-26 08:56:53	1	4	0	0
  4581878	2016-08-26 11:12:55	1	4	0	0
 33266410	2016-08-26 11:51:41	1	4	0	0
 32863644	2016-08-26 13:32:07	1	4	0	0
 16693441	2016-08-26 13:36:40	1	4	0	0
 31825746	2016-08-26 13:44:36	1	4	0	0
 10262692	2016-08-26 13:53:49	1	2	0	0
 10262692	2016-08-26 13:53:49	1	2	0	0
 35867385	2016-08-26 13:56:20	1	4	0	0
 30720795	2016-08-26 13:58:26	1	2	0	0
 33266410	2016-08-26 14:34:18	1	2	0	0
 33266410	2016-08-26 14:34:20	1	2	0	0
 20089437	2016-08-26 15:05:43	1	2	0	0
 22915525	2016-08-26 15:06:50	1	2	0	0
 23478388	2016-08-26 15:07:05	1	2	0	0
 30303790	2016-08-26 15:11:09	1	2	0	0
 31957912	2016-08-26 15:57:22	1	2	0	0
  4581878	2016-08-26 16:21:29	1	4	0	0
  4581878	2016-08-26 16:21:31	1	4	0	0
 25763179	2016-08-26 16:50:37	1	2	0	0
 35867385	2016-08-26 22:00:53	1	2	0	0
 35867385	2016-08-26 22:00:55	1	2	0	0
 31825746	2016-08-26 22:01:10	1	2	0	0
 32863644	2016-08-26 22:05:40	1	2	0	0
 16693441	2016-08-26 22:05:48	1	2	0	0
 22915525	2016-08-27 06:56:24	1	4	0	0
 23478388	2016-08-27 06:57:40	1	4	0	0
 32863644	2016-08-27 07:43:05	1	4	0	0
 20089437	2016-08-27 07:43:53	1	4	0	0
 16693441	2016-08-27 07:51:25	1	4	0	0
 31957912	2016-08-27 07:51:48	1	4	0	0
 35867385	2016-08-27 07:52:17	1	4	0	0
 25763179	2016-08-27 07:58:37	1	4	0	0
 30303790	2016-08-27 08:03:42	1	4	0	0
 32604013	2016-08-27 08:07:58	1	4	0	0
 30720795	2016-08-27 08:08:07	1	4	0	0
 23478388	2016-08-27 11:18:43	1	2	0	0
 22915525	2016-08-27 11:19:31	1	2	0	0
 20089437	2016-08-27 11:58:51	1	4	0	0
 30720795	2016-08-27 11:59:06	1	2	0	0
 30303790	2016-08-27 11:59:14	1	2	0	0
 25763179	2016-08-27 11:59:42	1	2	0	0
 35867385	2016-08-27 12:00:07	1	2	0	0
 16693441	2016-08-27 12:00:35	1	2	0	0
 31957912	2016-08-27 12:01:51	1	4	0	0
 31957912	2016-08-27 12:02:01	1	2	0	0
 32863644	2016-08-27 12:03:09	1	2	0	0
 31825746	2016-08-27 15:10:14	1	4	0	0
 31825746	2016-08-27 19:49:43	1	4	0	0
 22915525	2016-08-29 06:55:08	1	4	0	0
 23478388	2016-08-29 06:55:19	1	4	0	0
 20089437	2016-08-29 07:02:01	1	4	0	0
 30720795	2016-08-29 07:02:16	1	4	0	0
 30303790	2016-08-29 07:07:41	1	4	0	0
 31957912	2016-08-29 07:55:52	1	4	0	0
 33102815	2016-08-29 08:20:27	1	4	0	0
 25763179	2016-08-29 08:44:38	1	4	0	0
 10262692	2016-08-29 08:55:16	1	4	0	0
